%YAML 1.1
%TAG !u! tag:unity3d.com,2011:
--- !u!1045 &1
EditorBuildSettings:
  m_ObjectHideFlags: 0
  serializedVersion: 2
  m_Scenes:
  - enabled: 1
    path: Assets/Scenes/Loading.unity
    guid: b33998343ae6a084c9e1e89499e08100
  - enabled: 1
    path: Assets/Scenes/Level1.unity
    guid: 2fd8dae8f4e92c04dbf8c3fbbb492b0d
  - enabled: 1
    path: Assets/Scenes/Level2.unity
    guid: f40f4d831ccf25d4c9a324301871e04b
  - enabled: 1
    path: Assets/Scenes/Level3.unity
    guid: 870ad5bb7dac95d4d96c6fbc24882b4c
  - enabled: 1
    path: Assets/Scenes/Level4.unity
    guid: a57966bc06753ec4ba73a61cd22cf7dd
  m_configObjects: {}
